<?xml version="1.0" encoding="UTF-8"?>
<svg id="Capa_1" data-name="Capa 1" xmlns="http://www.w3.org/2000/svg" viewBox="0 0 425.2 425.2">
  <defs>
    <style>
      .cls-1 {
        fill: #f08131;
      }

      .cls-2 {
        fill: #005764;
      }

      .cls-3 {
        fill: #f08130;
      }
    </style>
  </defs>
  <g>
    <path class="cls-2" d="m45.74,383.3v-22.69h16.57c5.09,0,9.52,2.01,9.52,8.01s-4.43,8.04-9.52,8.04h-11.83v6.65h-4.74Zm4.74-18.15v6.97h12.14c2.56,0,4.36-.88,4.36-3.5s-1.8-3.47-4.36-3.47h-12.14Z"/>
    <path class="cls-2" d="m74.67,360.61h17.55c4.74,0,8.54,1.85,8.54,7.29s-3.83,7.13-8.48,7.13h-.28l9.71,8.27h-7.34l-9.04-8.11h-5.91v8.11h-4.74v-22.69Zm17.71,10.05c2.09,0,3.54-.71,3.54-2.76s-1.45-2.75-3.54-2.75h-12.97v5.51h12.97Z"/>
    <path class="cls-2" d="m118.14,360.13c9.77,0,14.86,5.09,14.86,11.83s-5.09,11.83-14.86,11.83-14.86-5.09-14.86-11.83,5.09-11.83,14.86-11.83Zm0,19.13c6.86,0,10.02-3.02,10.02-7.3s-3.16-7.29-10.02-7.29-10.03,3.02-10.03,7.29,3.16,7.3,10.03,7.3Z"/>
    <path class="cls-2" d="m136.15,383.3v-22.69h10.85c11.51,0,16.32,4.6,16.32,11.35s-4.81,11.35-16.32,11.35h-10.85Zm4.74-18.15v13.61h6.1c8.35,0,11.48-2.53,11.48-6.81s-3.13-6.81-11.48-6.81h-6.1Z"/>
    <path class="cls-2" d="m188.29,360.61h4.74v13.62c0,6.71-4.43,9.56-13.28,9.56s-13.28-2.85-13.28-9.56v-13.62h4.74v13.62c0,4.21,3.64,5.03,8.54,5.03s8.54-.81,8.54-5.03v-13.62Z"/>
    <path class="cls-2" d="m223.76,381.98c-1.42.49-5.38,1.81-11.26,1.81-11.51,0-16.32-5.09-16.32-11.83s4.81-11.83,16.32-11.83c5.88,0,9.83,1.33,11.26,1.81l-1.08,4.37c-3.19-.94-6.48-1.65-10.18-1.65-8.35,0-11.48,3.02-11.48,7.29s3.13,7.3,11.48,7.3c3.7,0,6.99-.71,10.18-1.65l1.08,4.37Z"/>
    <path class="cls-2" d="m252.9,381.98c-1.42.49-5.37,1.81-11.25,1.81-11.51,0-16.32-5.09-16.32-11.83s4.81-11.83,16.32-11.83c5.88,0,9.83,1.33,11.25,1.81l-1.07,4.37c-3.19-.94-6.48-1.65-10.18-1.65-8.35,0-11.48,3.02-11.48,7.29s3.13,7.3,11.48,7.3c3.7,0,6.99-.71,10.18-1.65l1.07,4.37Z"/>
    <path class="cls-2" d="m255.73,360.61h4.74v22.69h-4.74v-22.69Z"/>
    <path class="cls-2" d="m278.5,360.13c9.77,0,14.86,5.09,14.86,11.83s-5.09,11.83-14.86,11.83-14.86-5.09-14.86-11.83,5.09-11.83,14.86-11.83Zm0,19.13c6.86,0,10.02-3.02,10.02-7.3s-3.16-7.29-10.02-7.29-10.03,3.02-10.03,7.29,3.16,7.3,10.03,7.3Z"/>
    <path class="cls-2" d="m318.17,360.61h4.74v22.69h-4.74l-17.01-16.57.1,3.6v12.97h-4.74v-22.69h4.74l17.01,16.6-.1-3.63v-12.97Z"/>
    <path class="cls-2" d="m326.7,383.3v-22.69h24v4.54h-19.26v4.21h17.36v4.54h-17.36v4.86h19.89v4.54h-24.63Z"/>
    <path class="cls-2" d="m353.85,381.65l1.3-4.34c4.27,1.29,8.06,1.98,12.74,1.98,1.45,0,7.46-.07,7.46-2.76,0-1.62-2.15-1.75-7.4-2.04-6.36-.36-13.28-.75-13.28-6.97s6.89-7.39,12.46-7.39c3.48,0,7.4.45,11.32,1.33l-.98,4.44c-3.35-.75-6.8-1.23-11.13-1.23-1.14,0-6.83.03-6.83,2.6,0,2.21,4.24,2.4,8.66,2.56,6.2.26,12.02.94,12.02,6.49,0,6.35-7.65,7.49-13.15,7.49-4.08,0-8.73-.62-13.18-2.14Z"/>
  </g>
  <g>
    <path class="cls-3" d="m45.72,276.53c0-4.27-.24-8.66-.71-13.17h53.97l.95,19.22c-2.45-.4-4.94-.65-7.47-.77-2.53-.12-5.02-.18-7.47-.18h-16.84v14.59h13.29c2.21,0,4.35-.06,6.41-.18,2.06-.12,4.19-.34,6.41-.65v17.56c-2.22-.32-4.35-.51-6.41-.59-2.06-.08-4.19-.12-6.41-.12h-13.29v17.08h16.84c2.53,0,5.2-.08,8.01-.24,2.81-.16,5.52-.39,8.13-.71l-.95,19.22h-55.16c.47-4.43.71-8.82.71-13.17v-57.89Z"/>
    <path class="cls-3" d="m113.33,276.53c0-2.06-.06-4.21-.18-6.47-.12-2.25-.38-4.49-.77-6.7h30.96c11.23,0,19.34,2.22,24.32,6.64,4.98,4.43,7.47,10.64,7.47,18.63,0,4.67-.97,8.74-2.91,12.22-1.94,3.48-5.44,6.37-10.5,8.66,3.72,1.58,6.44,3.78,8.19,6.58,1.74,2.81,3.32,6.74,4.74,11.8l2.02,7.83c1.03,4.35,2.45,8.3,4.27,11.86h-23.49l-3.68-14.47c-.87-3.72-1.94-6.48-3.2-8.3-1.27-1.82-2.89-3.04-4.86-3.68-1.98-.63-4.51-.95-7.59-.95h-2.49v14.23c0,2.22.06,4.41.18,6.58s.37,4.37.77,6.58h-24.08c.32-2.21.53-4.41.65-6.58s.18-4.37.18-6.58v-57.89Zm40.81,16.01c0-3.48-1.01-6.17-3.02-8.06-2.02-1.9-5.44-2.85-10.26-2.85h-5.22v22.06h5.46c4.9,0,8.3-1.01,10.2-3.03,1.9-2.01,2.85-4.72,2.85-8.13Z"/>
    <path class="cls-3" d="m191.03,276.53c0-4.27-.24-8.66-.71-13.17h24.08c-.47,4.51-.71,8.9-.71,13.17v57.89c0,4.35.24,8.74.71,13.17h-24.08c.47-4.43.71-8.82.71-13.17v-57.89Z"/>
    <path class="cls-3" d="m259.35,284.12l-14.47-.12c-3.56,0-6.66.06-9.31.18-2.65.12-5.36.34-8.13.65l.95-21.47h59.67v15.66l-32.26,47.81h19.81c2.29,0,4.59-.08,6.88-.24,2.29-.16,4.63-.4,7-.71l-.83,21.71h-62.87v-14.35l33.57-49.11Z"/>
    <path class="cls-3" d="m299.51,328.13c-3.44-6.64-5.16-14.39-5.16-23.25,0-9.49,1.9-17.42,5.69-23.78,3.8-6.37,8.96-11.15,15.48-14.35,6.52-3.2,13.94-4.8,22.24-4.8s15.56,1.84,21.77,5.52c6.21,3.68,11.01,8.82,14.41,15.42,3.4,6.6,5.1,14.33,5.1,23.19,0,9.49-1.9,17.42-5.69,23.78-3.8,6.37-8.96,11.15-15.48,14.35-6.52,3.2-13.94,4.81-22.24,4.81s-15.54-1.82-21.71-5.46c-6.17-3.64-10.97-8.78-14.41-15.42Zm56.41-20.88c0-8.46-1.76-14.84-5.28-19.16-3.52-4.31-8.21-6.46-14.06-6.46s-10.22,1.92-13.82,5.75c-3.6,3.84-5.4,9.27-5.4,16.31,0,8.46,1.8,14.85,5.4,19.16,3.6,4.31,8.32,6.46,14.18,6.46s10.18-1.92,13.7-5.75c3.52-3.83,5.28-9.27,5.28-16.31Z"/>
  </g>
  <g>
    <path class="cls-2" d="m167.09,112.14c-5.9,8.53-6.93,18.1-2.29,21.37,4.64,3.27,13.18-.99,19.08-9.52,5.9-8.53,6.93-18.1,2.29-21.37-4.64-3.27-13.18.99-19.08,9.52Z"/>
    <path class="cls-1" d="m298.45,154.62c9.15-4.04,19.05-5.83,24.19-6.55,4.24-.59,7-.71,7.03-.71l35.02-1.46-22.53-26.81c-27.4-32.52-55.76-41.19-76.08-42.26,1.61-2.55,3.29-5.1,4.99-7.56l19.23-27.87-33.85.9c-8.33.22-16.46.88-24.17,1.95-39.65,5.49-90.4,24.19-110.92,81.55-1.82,3.33-4.51,5.9-9,6.42-7.51-.44-15.93-2.25-21.74-3.78-2.35-9.97-10.71-17.36-20.71-17.36-11.81,0-21.39,10.31-21.39,23.03,0,11.26,7.51,20.62,17.43,22.62,2.89,7.69,8.07,19.05,16.61,30.58,19.81,26.72,47.7,40.85,80.66,40.85,5.59,0,11.4-.41,17.26-1.22.8-.11,1.6-.23,2.41-.36.94-.15,1.88-.29,2.83-.42,8.35-1.16,17.66-1.74,27.68-1.74,45.97,0,92.9,12.25,93.37,12.37l24.74,6.53-3.28-25.37c-3.61-27.87-18.04-49.7-29.78-63.31Zm-85.05,52.58c-10.16,0-20.31.56-30.04,1.91-1.06.15-2.11.3-3.15.47-.7.11-1.39.21-2.08.31-5.22.72-10.19,1.06-14.9,1.06-51.24,0-73.07-39.91-80.45-58.47,2.27-1.85,4.19-4.17,5.63-6.84,7.17,1.79,17.62,3.9,27.14,3.9,2.4,0,4.73-.13,6.94-.44,4.42-.61,9.83-3.36,12.57-9.95,2.39-5.74,13.73-65.96,99.58-77.85,6.93-.96,14.34-1.58,22.27-1.79,0,0-19.6,28.37-20.25,39.33,0,0,5.86-2.94,15.49-4.27,2.82-.39,5.97-.64,9.39-.64,17.69,0,42.64,6.78,67.47,36.26,0,0-3.42.12-8.72.86-12.39,1.72-35.05,6.77-48.47,21.37,0,0,33.99,26.4,39.35,67.74,0,0-48.86-12.94-97.77-12.94Z"/>
  </g>
</svg>